{
  "annotations": {
    "list": [
      {
        "builtIn": 1,
        "datasource": "-- Grafana --",
        "enable": true,
        "hide": true,
        "iconColor": "rgba(0, 211, 255, 1)",
        "name": "Annotations & Alerts",
        "target": {
          "limit": 100,
          "matchAny": false,
          "tags": [],
          "type": "dashboard"
        },
        "type": "dashboard"
      }
    ]
  },
  "editable": true,
  "fiscalYearStartMonth": 0,
  "graphTooltip": 0,
  "id": 6,
  "links": [],
  "liveNow": false,
  "panels": [
    {
      "collapsed": false,
      "gridPos": {
        "h": 1,
        "w": 24,
        "x": 0,
        "y": 0
      },
      "id": 21,
      "panels": [],
      "title": "Current",
      "type": "row"
    },
    {
      "datasource": {
        "type": "influxdb",
        "uid": "HFCIxyEnz"
      },
      "fieldConfig": {
        "defaults": {
          "color": {
            "mode": "thresholds"
          },
          "mappings": [],
          "thresholds": {
            "mode": "absolute",
            "steps": [
              {
                "color": "green",
                "value": null
              }
            ]
          }
        },
        "overrides": [
          {
            "matcher": {
              "id": "byName",
              "options": "basalMetabolism"
            },
            "properties": [
              {
                "id": "displayName",
                "value": "Basal Metabolism"
              },
              {
                "id": "unit",
                "value": "KCal"
              }
            ]
          },
          {
            "matcher": {
              "id": "byName",
              "options": "bodyfat"
            },
            "properties": [
              {
                "id": "displayName",
                "value": "Body Fat"
              },
              {
                "id": "unit",
                "value": "percent"
              }
            ]
          },
          {
            "matcher": {
              "id": "byName",
              "options": "bodyScore"
            },
            "properties": [
              {
                "id": "displayName",
                "value": "Body Score"
              }
            ]
          },
          {
            "matcher": {
              "id": "byName",
              "options": "boneMass"
            },
            "properties": [
              {
                "id": "displayName",
                "value": "Bone Mass"
              },
              {
                "id": "unit",
                "value": "masskg"
              }
            ]
          },
          {
            "matcher": {
              "id": "byName",
              "options": "muscle"
            },
            "properties": [
              {
                "id": "displayName",
                "value": "Muscle"
              },
              {
                "id": "unit",
                "value": "masskg"
              }
            ]
          },
          {
            "matcher": {
              "id": "byName",
              "options": "protein"
            },
            "properties": [
              {
                "id": "displayName",
                "value": "Protein"
              },
              {
                "id": "unit",
                "value": "percent"
              }
            ]
          },
          {
            "matcher": {
              "id": "byName",
              "options": "visceralFat"
            },
            "properties": [
              {
                "id": "displayName",
                "value": "Visceral Fat"
              }
            ]
          },
          {
            "matcher": {
              "id": "byName",
              "options": "water"
            },
            "properties": [
              {
                "id": "displayName",
                "value": "Water"
              },
              {
                "id": "unit",
                "value": "percent"
              }
            ]
          },
          {
            "matcher": {
              "id": "byName",
              "options": "weight"
            },
            "properties": [
              {
                "id": "displayName",
                "value": "Weight"
              },
              {
                "id": "unit",
                "value": "masskg"
              }
            ]
          }
        ]
      },
      "gridPos": {
        "h": 9,
        "w": 19,
        "x": 0,
        "y": 1
      },
      "id": 23,
      "options": {
        "colorMode": "value",
        "graphMode": "area",
        "justifyMode": "auto",
        "orientation": "auto",
        "reduceOptions": {
          "calcs": [
            "lastNotNull"
          ],
          "fields": "",
          "values": false
        },
        "textMode": "auto"
      },
      "pluginVersion": "8.4.3",
      "targets": [
        {
          "datasource": {
            "type": "influxdb",
            "uid": "HFCIxyEnz"
          },
          "query": "from(bucket: \"mifit\")\n  |> range(start: 0, stop: now())\n  |> filter(fn: (r) => r[\"_measurement\"] == \"scale\")\n  |> last()",
          "refId": "A"
        }
      ],
      "title": "Current",
      "type": "stat"
    },
    {
      "datasource": {
        "type": "influxdb",
        "uid": "HFCIxyEnz"
      },
      "fieldConfig": {
        "defaults": {
          "color": {
            "mode": "thresholds"
          },
          "mappings": [],
          "thresholds": {
            "mode": "percentage",
            "steps": [
              {
                "color": "green",
                "value": null
              }
            ]
          },
          "unit": "dateTimeFromNow"
        },
        "overrides": []
      },
      "gridPos": {
        "h": 9,
        "w": 5,
        "x": 19,
        "y": 1
      },
      "id": 25,
      "options": {
        "colorMode": "value",
        "graphMode": "area",
        "justifyMode": "auto",
        "orientation": "auto",
        "reduceOptions": {
          "calcs": [
            "lastNotNull"
          ],
          "fields": "/^Time$/",
          "values": false
        },
        "textMode": "auto"
      },
      "pluginVersion": "8.4.3",
      "targets": [
        {
          "datasource": {
            "type": "influxdb",
            "uid": "HFCIxyEnz"
          },
          "query": "from(bucket:\"mifit\")\n  |> range(start: -90d)\n  |> filter(fn: (r) => r._measurement == \"scale\" and r._field == \"weight\")\n",
          "refId": "A"
        }
      ],
      "title": "Last Measurement",
      "type": "stat"
    },
    {
      "collapsed": false,
      "gridPos": {
        "h": 1,
        "w": 24,
        "x": 0,
        "y": 10
      },
      "id": 4,
      "panels": [],
      "title": "General",
      "type": "row"
    },
    {
      "datasource": {
        "type": "influxdb",
        "uid": "HFCIxyEnz"
      },
      "fieldConfig": {
        "defaults": {
          "color": {
            "mode": "palette-classic"
          },
          "custom": {
            "axisLabel": "",
            "axisPlacement": "auto",
            "barAlignment": 0,
            "drawStyle": "line",
            "fillOpacity": 25,
            "gradientMode": "none",
            "hideFrom": {
              "legend": false,
              "tooltip": false,
              "viz": false
            },
            "lineInterpolation": "smooth",
            "lineWidth": 2,
            "pointSize": 5,
            "scaleDistribution": {
              "type": "linear"
            },
            "showPoints": "auto",
            "spanNulls": false,
            "stacking": {
              "group": "A",
              "mode": "none"
            },
            "thresholdsStyle": {
              "mode": "off"
            }
          },
          "mappings": [],
          "thresholds": {
            "mode": "absolute",
            "steps": [
              {
                "color": "green",
                "value": null
              },
              {
                "color": "red",
                "value": 78
              }
            ]
          },
          "unit": "masskg"
        },
        "overrides": []
      },
      "gridPos": {
        "h": 9,
        "w": 12,
        "x": 0,
        "y": 11
      },
      "id": 2,
      "options": {
        "legend": {
          "calcs": [],
          "displayMode": "hidden",
          "placement": "bottom"
        },
        "tooltip": {
          "mode": "multi",
          "sort": "none"
        }
      },
      "targets": [
        {
          "datasource": {
            "type": "influxdb",
            "uid": "HFCIxyEnz"
          },
          "query": "from(bucket:\"mifit\")\n  |> range(start: -90d)\n  |> filter(fn: (r) => r._measurement == \"scale\" and r._field == \"weight\")",
          "refId": "A"
        }
      ],
      "title": "Weight",
      "type": "timeseries"
    },
    {
      "datasource": {
        "type": "influxdb",
        "uid": "HFCIxyEnz"
      },
      "fieldConfig": {
        "defaults": {
          "color": {
            "mode": "palette-classic"
          },
          "custom": {
            "axisLabel": "",
            "axisPlacement": "auto",
            "barAlignment": 0,
            "drawStyle": "line",
            "fillOpacity": 25,
            "gradientMode": "none",
            "hideFrom": {
              "legend": false,
              "tooltip": false,
              "viz": false
            },
            "lineInterpolation": "smooth",
            "lineWidth": 2,
            "pointSize": 5,
            "scaleDistribution": {
              "type": "linear"
            },
            "showPoints": "auto",
            "spanNulls": false,
            "stacking": {
              "group": "A",
              "mode": "none"
            },
            "thresholdsStyle": {
              "mode": "off"
            }
          },
          "mappings": [],
          "thresholds": {
            "mode": "absolute",
            "steps": [
              {
                "color": "green",
                "value": null
              },
              {
                "color": "red",
                "value": 80
              }
            ]
          }
        },
        "overrides": []
      },
      "gridPos": {
        "h": 9,
        "w": 12,
        "x": 12,
        "y": 11
      },
      "id": 6,
      "options": {
        "legend": {
          "calcs": [],
          "displayMode": "hidden",
          "placement": "bottom"
        },
        "tooltip": {
          "mode": "single",
          "sort": "none"
        }
      },
      "targets": [
        {
          "datasource": {
            "type": "influxdb",
            "uid": "HFCIxyEnz"
          },
          "query": "from(bucket:\"mifit\")\n  |> range(start: -90d)\n  |> filter(fn: (r) => r._measurement == \"scale\" and r._field == \"bodyScore\")",
          "refId": "A"
        }
      ],
      "title": "Body score",
      "type": "timeseries"
    },
    {
      "collapsed": false,
      "gridPos": {
        "h": 1,
        "w": 24,
        "x": 0,
        "y": 20
      },
      "id": 8,
      "panels": [],
      "title": "Measurements",
      "type": "row"
    },
    {
      "datasource": {
        "type": "influxdb",
        "uid": "HFCIxyEnz"
      },
      "fieldConfig": {
        "defaults": {
          "color": {
            "mode": "palette-classic"
          },
          "custom": {
            "axisLabel": "",
            "axisPlacement": "auto",
            "barAlignment": 0,
            "drawStyle": "line",
            "fillOpacity": 25,
            "gradientMode": "none",
            "hideFrom": {
              "legend": false,
              "tooltip": false,
              "viz": false
            },
            "lineInterpolation": "smooth",
            "lineWidth": 2,
            "pointSize": 5,
            "scaleDistribution": {
              "type": "linear"
            },
            "showPoints": "auto",
            "spanNulls": false,
            "stacking": {
              "group": "A",
              "mode": "none"
            },
            "thresholdsStyle": {
              "mode": "off"
            }
          },
          "mappings": [],
          "thresholds": {
            "mode": "absolute",
            "steps": [
              {
                "color": "green",
                "value": null
              },
              {
                "color": "red",
                "value": 80
              }
            ]
          }
        },
        "overrides": []
      },
      "gridPos": {
        "h": 8,
        "w": 12,
        "x": 0,
        "y": 21
      },
      "id": 10,
      "options": {
        "legend": {
          "calcs": [],
          "displayMode": "hidden",
          "placement": "bottom"
        },
        "tooltip": {
          "mode": "single",
          "sort": "asc"
        }
      },
      "targets": [
        {
          "datasource": {
            "type": "influxdb",
            "uid": "HFCIxyEnz"
          },
          "query": "from(bucket:\"mifit\")\n  |> range(start: -90d)\n  |> filter(fn: (r) => r._measurement == \"scale\" and r._field == \"BMI\")",
          "refId": "A"
        }
      ],
      "title": "BMI",
      "type": "timeseries"
    },
    {
      "datasource": {
        "type": "influxdb",
        "uid": "HFCIxyEnz"
      },
      "fieldConfig": {
        "defaults": {
          "color": {
            "mode": "palette-classic"
          },
          "custom": {
            "axisLabel": "",
            "axisPlacement": "auto",
            "barAlignment": 0,
            "drawStyle": "line",
            "fillOpacity": 25,
            "gradientMode": "none",
            "hideFrom": {
              "legend": false,
              "tooltip": false,
              "viz": false
            },
            "lineInterpolation": "smooth",
            "lineWidth": 2,
            "pointSize": 5,
            "scaleDistribution": {
              "type": "linear"
            },
            "showPoints": "auto",
            "spanNulls": false,
            "stacking": {
              "group": "A",
              "mode": "none"
            },
            "thresholdsStyle": {
              "mode": "off"
            }
          },
          "mappings": [],
          "thresholds": {
            "mode": "absolute",
            "steps": [
              {
                "color": "green",
                "value": null
              },
              {
                "color": "red",
                "value": 80
              }
            ]
          },
          "unit": "percent"
        },
        "overrides": []
      },
      "gridPos": {
        "h": 8,
        "w": 12,
        "x": 12,
        "y": 21
      },
      "id": 12,
      "options": {
        "legend": {
          "calcs": [],
          "displayMode": "hidden",
          "placement": "bottom"
        },
        "tooltip": {
          "mode": "single",
          "sort": "none"
        }
      },
      "targets": [
        {
          "datasource": {
            "type": "influxdb",
            "uid": "HFCIxyEnz"
          },
          "query": "from(bucket:\"mifit\")\n  |> range(start: -90d)\n  |> filter(fn: (r) => r._measurement == \"scale\" and r._field == \"bodyfat\")",
          "refId": "A"
        }
      ],
      "title": "Body fat",
      "type": "timeseries"
    },
    {
      "datasource": {
        "type": "influxdb",
        "uid": "HFCIxyEnz"
      },
      "fieldConfig": {
        "defaults": {
          "color": {
            "mode": "palette-classic"
          },
          "custom": {
            "axisLabel": "",
            "axisPlacement": "auto",
            "barAlignment": 0,
            "drawStyle": "line",
            "fillOpacity": 25,
            "gradientMode": "none",
            "hideFrom": {
              "legend": false,
              "tooltip": false,
              "viz": false
            },
            "lineInterpolation": "smooth",
            "lineWidth": 2,
            "pointSize": 5,
            "scaleDistribution": {
              "type": "linear"
            },
            "showPoints": "auto",
            "spanNulls": false,
            "stacking": {
              "group": "A",
              "mode": "none"
            },
            "thresholdsStyle": {
              "mode": "off"
            }
          },
          "mappings": [],
          "thresholds": {
            "mode": "absolute",
            "steps": [
              {
                "color": "green",
                "value": null
              },
              {
                "color": "red",
                "value": 80
              }
            ]
          },
          "unit": "percent"
        },
        "overrides": []
      },
      "gridPos": {
        "h": 8,
        "w": 12,
        "x": 0,
        "y": 29
      },
      "id": 14,
      "options": {
        "legend": {
          "calcs": [],
          "displayMode": "hidden",
          "placement": "bottom"
        },
        "tooltip": {
          "mode": "single",
          "sort": "none"
        }
      },
      "targets": [
        {
          "datasource": {
            "type": "influxdb",
            "uid": "HFCIxyEnz"
          },
          "query": "from(bucket:\"mifit\")\n  |> range(start: -90d)\n  |> filter(fn: (r) => r._measurement == \"scale\" and r._field == \"water\")",
          "refId": "A"
        }
      ],
      "title": "Water",
      "type": "timeseries"
    },
    {
      "datasource": {
        "type": "influxdb",
        "uid": "HFCIxyEnz"
      },
      "fieldConfig": {
        "defaults": {
          "color": {
            "mode": "palette-classic"
          },
          "custom": {
            "axisLabel": "",
            "axisPlacement": "auto",
            "barAlignment": 0,
            "drawStyle": "line",
            "fillOpacity": 25,
            "gradientMode": "none",
            "hideFrom": {
              "legend": false,
              "tooltip": false,
              "viz": false
            },
            "lineInterpolation": "smooth",
            "lineWidth": 2,
            "pointSize": 5,
            "scaleDistribution": {
              "type": "linear"
            },
            "showPoints": "auto",
            "spanNulls": false,
            "stacking": {
              "group": "A",
              "mode": "none"
            },
            "thresholdsStyle": {
              "mode": "off"
            }
          },
          "mappings": [],
          "thresholds": {
            "mode": "absolute",
            "steps": [
              {
                "color": "green",
                "value": null
              },
              {
                "color": "red",
                "value": 80
              }
            ]
          },
          "unit": "masskg"
        },
        "overrides": []
      },
      "gridPos": {
        "h": 8,
        "w": 12,
        "x": 12,
        "y": 29
      },
      "id": 15,
      "options": {
        "legend": {
          "calcs": [],
          "displayMode": "hidden",
          "placement": "bottom"
        },
        "tooltip": {
          "mode": "single",
          "sort": "none"
        }
      },
      "targets": [
        {
          "datasource": {
            "type": "influxdb",
            "uid": "HFCIxyEnz"
          },
          "query": "from(bucket:\"mifit\")\n  |> range(start: -90d)\n  |> filter(fn: (r) => r._measurement == \"scale\" and r._field == \"boneMass\")",
          "refId": "A"
        }
      ],
      "title": "Bone Mass",
      "type": "timeseries"
    },
    {
      "datasource": {
        "type": "influxdb",
        "uid": "HFCIxyEnz"
      },
      "fieldConfig": {
        "defaults": {
          "color": {
            "mode": "palette-classic"
          },
          "custom": {
            "axisLabel": "",
            "axisPlacement": "auto",
            "barAlignment": 0,
            "drawStyle": "line",
            "fillOpacity": 25,
            "gradientMode": "none",
            "hideFrom": {
              "legend": false,
              "tooltip": false,
              "viz": false
            },
            "lineInterpolation": "smooth",
            "lineWidth": 2,
            "pointSize": 5,
            "scaleDistribution": {
              "type": "linear"
            },
            "showPoints": "auto",
            "spanNulls": false,
            "stacking": {
              "group": "A",
              "mode": "none"
            },
            "thresholdsStyle": {
              "mode": "off"
            }
          },
          "mappings": [],
          "thresholds": {
            "mode": "absolute",
            "steps": [
              {
                "color": "green",
                "value": null
              },
              {
                "color": "red",
                "value": 80
              }
            ]
          },
          "unit": "masskg"
        },
        "overrides": []
      },
      "gridPos": {
        "h": 8,
        "w": 12,
        "x": 0,
        "y": 37
      },
      "id": 17,
      "options": {
        "legend": {
          "calcs": [],
          "displayMode": "hidden",
          "placement": "bottom"
        },
        "tooltip": {
          "mode": "single",
          "sort": "none"
        }
      },
      "targets": [
        {
          "datasource": {
            "type": "influxdb",
            "uid": "HFCIxyEnz"
          },
          "query": "from(bucket:\"mifit\")\n  |> range(start: -90d)\n  |> filter(fn: (r) => r._measurement == \"scale\" and r._field == \"muscle\")",
          "refId": "A"
        }
      ],
      "title": "Muscle",
      "type": "timeseries"
    },
    {
      "datasource": {
        "type": "influxdb",
        "uid": "HFCIxyEnz"
      },
      "fieldConfig": {
        "defaults": {
          "color": {
            "mode": "palette-classic"
          },
          "custom": {
            "axisLabel": "",
            "axisPlacement": "auto",
            "barAlignment": 0,
            "drawStyle": "line",
            "fillOpacity": 25,
            "gradientMode": "none",
            "hideFrom": {
              "legend": false,
              "tooltip": false,
              "viz": false
            },
            "lineInterpolation": "smooth",
            "lineWidth": 2,
            "pointSize": 5,
            "scaleDistribution": {
              "type": "linear"
            },
            "showPoints": "auto",
            "spanNulls": false,
            "stacking": {
              "group": "A",
              "mode": "none"
            },
            "thresholdsStyle": {
              "mode": "off"
            }
          },
          "mappings": [],
          "thresholds": {
            "mode": "absolute",
            "steps": [
              {
                "color": "green",
                "value": null
              },
              {
                "color": "red",
                "value": 80
              }
            ]
          },
          "unit": "percent"
        },
        "overrides": []
      },
      "gridPos": {
        "h": 8,
        "w": 12,
        "x": 12,
        "y": 37
      },
      "id": 16,
      "options": {
        "legend": {
          "calcs": [],
          "displayMode": "hidden",
          "placement": "bottom"
        },
        "tooltip": {
          "mode": "single",
          "sort": "none"
        }
      },
      "targets": [
        {
          "datasource": {
            "type": "influxdb",
            "uid": "HFCIxyEnz"
          },
          "query": "from(bucket:\"mifit\")\n  |> range(start: -90d)\n  |> filter(fn: (r) => r._measurement == \"scale\" and r._field == \"protein\")",
          "refId": "A"
        }
      ],
      "title": "Protein",
      "type": "timeseries"
    },
    {
      "datasource": {
        "type": "influxdb",
        "uid": "HFCIxyEnz"
      },
      "fieldConfig": {
        "defaults": {
          "color": {
            "mode": "palette-classic"
          },
          "custom": {
            "axisLabel": "",
            "axisPlacement": "auto",
            "barAlignment": 0,
            "drawStyle": "line",
            "fillOpacity": 25,
            "gradientMode": "none",
            "hideFrom": {
              "legend": false,
              "tooltip": false,
              "viz": false
            },
            "lineInterpolation": "smooth",
            "lineWidth": 2,
            "pointSize": 5,
            "scaleDistribution": {
              "type": "linear"
            },
            "showPoints": "auto",
            "spanNulls": false,
            "stacking": {
              "group": "A",
              "mode": "none"
            },
            "thresholdsStyle": {
              "mode": "off"
            }
          },
          "mappings": [],
          "thresholds": {
            "mode": "absolute",
            "steps": [
              {
                "color": "green",
                "value": null
              },
              {
                "color": "red",
                "value": 80
              }
            ]
          },
          "unit": "none"
        },
        "overrides": []
      },
      "gridPos": {
        "h": 8,
        "w": 12,
        "x": 0,
        "y": 45
      },
      "id": 18,
      "options": {
        "legend": {
          "calcs": [],
          "displayMode": "hidden",
          "placement": "bottom"
        },
        "tooltip": {
          "mode": "single",
          "sort": "none"
        }
      },
      "targets": [
        {
          "datasource": {
            "type": "influxdb",
            "uid": "HFCIxyEnz"
          },
          "query": "from(bucket:\"mifit\")\n  |> range(start: -90d)\n  |> filter(fn: (r) => r._measurement == \"scale\" and r._field == \"visceralFat\")",
          "refId": "A"
        }
      ],
      "title": "Visceral fat",
      "type": "timeseries"
    },
    {
      "datasource": {
        "type": "influxdb",
        "uid": "HFCIxyEnz"
      },
      "fieldConfig": {
        "defaults": {
          "color": {
            "mode": "palette-classic"
          },
          "custom": {
            "axisLabel": "",
            "axisPlacement": "auto",
            "barAlignment": 0,
            "drawStyle": "line",
            "fillOpacity": 25,
            "gradientMode": "none",
            "hideFrom": {
              "legend": false,
              "tooltip": false,
              "viz": false
            },
            "lineInterpolation": "smooth",
            "lineWidth": 2,
            "pointSize": 5,
            "scaleDistribution": {
              "type": "linear"
            },
            "showPoints": "auto",
            "spanNulls": false,
            "stacking": {
              "group": "A",
              "mode": "none"
            },
            "thresholdsStyle": {
              "mode": "off"
            }
          },
          "mappings": [],
          "thresholds": {
            "mode": "absolute",
            "steps": [
              {
                "color": "green",
                "value": null
              },
              {
                "color": "red",
                "value": 80
              }
            ]
          },
          "unit": "KCal"
        },
        "overrides": []
      },
      "gridPos": {
        "h": 8,
        "w": 12,
        "x": 12,
        "y": 45
      },
      "id": 19,
      "options": {
        "legend": {
          "calcs": [],
          "displayMode": "hidden",
          "placement": "bottom"
        },
        "tooltip": {
          "mode": "single",
          "sort": "none"
        }
      },
      "targets": [
        {
          "datasource": {
            "type": "influxdb",
            "uid": "HFCIxyEnz"
          },
          "query": "from(bucket:\"mifit\")\n  |> range(start: -90d)\n  |> filter(fn: (r) => r._measurement == \"scale\" and r._field == \"basalMetabolism\")",
          "refId": "A"
        }
      ],
      "title": "Basal metabolism",
      "type": "timeseries"
    }
  ],
  "schemaVersion": 35,
  "style": "dark",
  "tags": [],
  "templating": {
    "list": []
  },
  "time": {
    "from": "now-60d",
    "to": "now"
  },
  "timepicker": {},
  "timezone": "",
  "title": "Mi Fit",
  "uid": "pWSvayP7z",
  "version": 6,
  "weekStart": ""
}